Ste(cm) & 1.0 & 0.1 & 0.6 & 0.9 & 1.0 & 1.0  & 2.2 & 0.4 & 0.4 & 0.1 & 2.2 & 2.2 \\ 
  MAE(cm) & 2.2 & 2.0 & 0.7 & 1.8 & 1.4 & 1.9  & 2.2 & 2.9 & 0.4 & 1.2 & 2.2 & 2.2 \\ 
  ME(cm) & 0.8 & 0.3 & 0.6 & 1.1 & 0.8 & 0.8  & 1.5 & 0.8 & 0.3 & 0.6 & 1.5 & 1.5 \\ 
Mark & 5 & 5 & 5 & 5 & 5 & 5 & 5 & 4 & 1 & 5 & 5 & 5 \\  
 