Ste(cm) & 0.0 & 0.0 & 0.2 & 0.3 & 0.0 & 0.1  & 0.1 & 0.0 & 0.0 & 0.0 & 0.1 & 0.2 \\ 
  MAE(cm) & 0.9 & 0.5 & 0.8 & 1.4 & 1.2 & 1.1  & 0.4 & 0.2 & 0.4 & 0.4 & 0.6 & 0.5 \\ 
  ME(cm) & 6.3 & 4.9 & 4.9 & 6.7 & 7.0 & 5.9  & 3.0 & 2.1 & 2.9 & 2.9 & 3.3 & 3.0 \\ 
Mark & 3 & 1 & 2 & 5 & 3 & 3 & 3 & 1 & 3 & 3 & 4 & 5 \\  
 